"id","reconcile","code","name","user_type_id/id","chart_template_id:id"
"l10n_ec_plan_inredh_base_111112","True","111112","Caja Chica","account.data_account_type_liquidity","l10n_ec_plan_inredh_base"
"l10n_ec_plan_inredh_base_111123","True","111123","Banco Produbanco 81-0 U.E. SUR","account.data_account_type_liquidity","l10n_ec_plan_inredh_base"
"l10n_ec_plan_inredh_base_111124","True","111124","Banco Produbanco 96-2 11.11.11.","account.data_account_type_liquidity","l10n_ec_plan_inredh_base"
"l10n_ec_plan_inredh_base_111125","True","111125","Banco Produbanco 99-6 P.P.M.","account.data_account_type_liquidity","l10n_ec_plan_inredh_base"
"l10n_ec_plan_inredh_base_111127","True","111127","Banco Bolivariano Cta. Ahoros Euros 05-1","account.data_account_type_liquidity","l10n_ec_plan_inredh_base"
"l10n_ec_plan_inredh_base_111129","True","111129","Banco Produbanco Cta Ahorros Euros 9-8","account.data_account_type_liquidity","l10n_ec_plan_inredh_base"
"l10n_ec_plan_inredh_base_111130","True","111130","Banco Bolivariano Cta.Cte.No.94-3 UE-FOR","account.data_account_type_liquidity","l10n_ec_plan_inredh_base"
"l10n_ec_plan_inredh_base_111212","True","111212","Ctas.x.Cobrar INREDH","account.data_account_type_receivable","l10n_ec_plan_inredh_base"
"l10n_ec_plan_inredh_base_111221","True","111221","Ctas.x.Cobrar Empleados","account.data_account_type_receivable","l10n_ec_plan_inredh_base"
"l10n_ec_plan_inredh_base_111231","True","111231","12% IVA Por Cobrar  Proyectos","account.data_account_type_current_assets","l10n_ec_plan_inredh_base"
"l10n_ec_plan_inredh_base_111232","True","111232","14% IVA Por Cobrar  Proyectos","account.data_account_type_current_assets","l10n_ec_plan_inredh_base"
"l10n_ec_plan_inredh_base_111241","True","111241","Intereses Ganados Por Cobrar Cop. Fon V.","account.data_account_type_receivable","l10n_ec_plan_inredh_base"
"l10n_ec_plan_inredh_base_111281","True","111281","Anticipos Por Cobrar  INREDH","account.data_account_type_receivable","l10n_ec_plan_inredh_base"
"l10n_ec_plan_inredh_base_111283","True","111283","Anticipos Por Cobrar Proy. 11.11.11.","account.data_account_type_receivable","l10n_ec_plan_inredh_base"
"l10n_ec_plan_inredh_base_111284","True","111284","Anticipos Por Cobrar Proy P.P.M.","account.data_account_type_receivable","l10n_ec_plan_inredh_base"
"l10n_ec_plan_inredh_base_111286","True","111286","Anticipo por cobrar Proy U. Europea","account.data_account_type_receivable","l10n_ec_plan_inredh_base"
"l10n_ec_plan_inredh_base_111291","True","111291","Fondos de Garantia","account.data_account_type_receivable","l10n_ec_plan_inredh_base"
"l10n_ec_plan_inredh_base_114122","True","141122","Equipos de Oficina","account.data_account_type_fixed_assets","l10n_ec_plan_inredh_base"
"l10n_ec_plan_inredh_base_114124","True","141124","Vehiculo","account.data_account_type_fixed_assets","l10n_ec_plan_inredh_base"
"l10n_ec_plan_inredh_base_114125","True","141125","Edificio","account.data_account_type_fixed_assets","l10n_ec_plan_inredh_base"
"l10n_ec_plan_inredh_base_114126","True","141126","SOFWARE","account.data_account_type_fixed_assets","l10n_ec_plan_inredh_base"
"l10n_ec_plan_inredh_base_114211","True","142111","Dep.Acum.Muebles y Enseres","account.data_account_type_fixed_assets","l10n_ec_plan_inredh_base"
"l10n_ec_plan_inredh_base_114212","True","142112","Dep.Acum.Equipos de Oficina","account.data_account_type_fixed_assets","l10n_ec_plan_inredh_base"
"l10n_ec_plan_inredh_base_114214","True","142114","Dep.Acum.Vehiculo","account.data_account_type_fixed_assets","l10n_ec_plan_inredh_base"
"l10n_ec_plan_inredh_base_114215","True","142115","Dep.Acum.Edificio","account.data_account_type_fixed_assets","l10n_ec_plan_inredh_base"
"l10n_ec_plan_inredh_base_114216","True","142116","Dep. Acum. Sofware","account.data_account_type_fixed_assets","l10n_ec_plan_inredh_base"
"l10n_ec_plan_inredh_base_151111","True","151111","ACTIVO DIFERIDO","account.data_account_type_fixed_assets","l10n_ec_plan_inredh_base"
"l10n_ec_plan_inredh_base_211111","True","211111","Ctas.x.Pagar Proveedores","account.data_account_type_payable","l10n_ec_plan_inredh_base"
"l10n_ec_plan_inredh_base_211122","True","211122","Decimo Cuarto Sueldo","account.data_account_type_current_liabilities","l10n_ec_plan_inredh_base"
"l10n_ec_plan_inredh_base_211123","True","211123","Fondo de Reserva","account.data_account_type_current_liabilities","l10n_ec_plan_inredh_base"
"l10n_ec_plan_inredh_base_211124","True","211124","Vacaciones","account.data_account_type_current_liabilities","l10n_ec_plan_inredh_base"
"l10n_ec_plan_inredh_base_211125","True","211125","Decimo Tercer Sueldo","account.data_account_type_current_liabilities","l10n_ec_plan_inredh_base"
"l10n_ec_plan_inredh_base_211131","True","211131","12% IVA en Ventas","account.data_account_type_current_liabilities","l10n_ec_plan_inredh_base"
"l10n_ec_plan_inredh_base_211132","True","211132","14% Iva en Ventas","account.data_account_type_current_liabilities","l10n_ec_plan_inredh_base"
"l10n_ec_plan_inredh_base_211141","True","211141","1% Retenciones en la fuente","account.data_account_type_current_liabilities","l10n_ec_plan_inredh_base"
"l10n_ec_plan_inredh_base_211142","True","211142","2% Retenciones en la fuente","account.data_account_type_current_liabilities","l10n_ec_plan_inredh_base"
"l10n_ec_plan_inredh_base_211143","True","211143","3% Retenciones en la fuente","account.data_account_type_current_liabilities","l10n_ec_plan_inredh_base"
"l10n_ec_plan_inredh_base_211144","True","211144","8% Retenciones en la fuente","account.data_account_type_current_liabilities","l10n_ec_plan_inredh_base"
"l10n_ec_plan_inredh_base_211147","True","211147","70% Retencion IVA por pagar","account.data_account_type_current_liabilities","l10n_ec_plan_inredh_base"
"l10n_ec_plan_inredh_base_211148","True","211148","100% Retencion IVA por pagar","account.data_account_type_current_liabilities","l10n_ec_plan_inredh_base"
"l10n_ec_plan_inredh_base_211151","True","211151","9.35 % Aporte Personal","account.data_account_type_current_liabilities","l10n_ec_plan_inredh_base"
"l10n_ec_plan_inredh_base_211152","True","211152","12.15% Aporte Patronal","account.data_account_type_current_liabilities","l10n_ec_plan_inredh_base"
"l10n_ec_plan_inredh_base_211153","True","211153","Seguro T. Parcial IESS","account.data_account_type_current_liabilities","l10n_ec_plan_inredh_base"
"l10n_ec_plan_inredh_base_211154","True","211154","Prestamos Empleados por pagar IESS","account.data_account_type_current_liabilities","l10n_ec_plan_inredh_base"
"l10n_ec_plan_inredh_base_211154","True","211155","Sueldos x Pagar Empleados","account.data_account_type_payable","l10n_ec_plan_inredh_base"
"l10n_ec_plan_inredh_base_211163","True","211163","Fondo Por Ejecutar Por Pagar Proy. P.P.M","account.data_account_type_current_liabilities","l10n_ec_plan_inredh_base"
"l10n_ec_plan_inredh_base_211164","True","211164","Fondo Por Ejecutar INREDH Cta EUROS","account.data_account_type_current_liabilities","l10n_ec_plan_inredh_base"
"l10n_ec_plan_inredh_base_211166","True","211166","Fondo Por Liquidar Proy. 11.11.11.","account.data_account_type_current_liabilities","l10n_ec_plan_inredh_base"
"l10n_ec_plan_inredh_base_211167","True","211167","Fondo por Ejecutar Proy. U.E. SUR","account.data_account_type_current_liabilities","l10n_ec_plan_inredh_base"
"l10n_ec_plan_inredh_base_211174","True","211174","Contribuciones INREDH -FV. Por Pagar","account.data_account_type_current_liabilities","l10n_ec_plan_inredh_base"
"l10n_ec_plan_inredh_base_211175","True","211175","Contribuciones Para Proy. C. Europea Sur","account.data_account_type_current_liabilities","l10n_ec_plan_inredh_base"
"l10n_ec_plan_inredh_base_211183","True","211183","Otras Ctas Por Pagar Impuet Aport. P.P.M","account.data_account_type_current_liabilities","l10n_ec_plan_inredh_base"
"l10n_ec_plan_inredh_base_211201","True","211201","Prestamo Por Pagar (Coop. Fond. Vida)","account.data_account_type_current_liabilities","l10n_ec_plan_inredh_base"
"l10n_ec_plan_inredh_base_311112","True","311112","CAPITAL SOCIAL NO PAGADO","account.data_account_type_equity","l10n_ec_plan_inredh_base"
"l10n_ec_plan_inredh_base_331111","True","331111","Revalorización de Activos Fijos","account.data_account_type_equity","l10n_ec_plan_inredh_base"
"l10n_ec_plan_inredh_base_332111","True","332111","Fondo General de Trabajo del Periodo","account.data_account_type_equity","l10n_ec_plan_inredh_base"
"l10n_ec_plan_inredh_base_411111","True","411111","Ing. Proy. MIVA","account.data_account_type_revenue","l10n_ec_plan_inredh_base"
"l10n_ec_plan_inredh_base_411113","True","411113","Ing. Proy. Pan Para Mundo","account.data_account_type_revenue","l10n_ec_plan_inredh_base"
"l10n_ec_plan_inredh_base_411115","True","411115","Ing. Proy. Union Europea Sur","account.data_account_type_revenue","l10n_ec_plan_inredh_base"
"l10n_ec_plan_inredh_base_411213","True","411213","Contribuciones Para Proy. 11.11.11.","account.data_account_type_revenue","l10n_ec_plan_inredh_base"
"l10n_ec_plan_inredh_base_411214","True","411214","Contribuciones Para Proyecto P.P.M.","account.data_account_type_revenue","l10n_ec_plan_inredh_base"
"l10n_ec_plan_inredh_base_421113","True","421113","Venta de Camioneta","account.data_account_type_revenue","l10n_ec_plan_inredh_base"
"l10n_ec_plan_inredh_base_422111","True","422111","Intereses Ganados","account.data_account_type_revenue","l10n_ec_plan_inredh_base"
"l10n_ec_plan_inredh_base_511111","True","511111","Sueldos","account.data_account_type_expenses","l10n_ec_plan_inredh_base"
"l10n_ec_plan_inredh_base_511112","True","511112","Gratificaciones","account.data_account_type_expenses","l10n_ec_plan_inredh_base"
"l10n_ec_plan_inredh_base_511113","True","511113","Decimo Tercero Sueldo","account.data_account_type_expenses","l10n_ec_plan_inredh_base"
"l10n_ec_plan_inredh_base_511114","True","511114","Decimo Cuarto Sueldo","account.data_account_type_expenses","l10n_ec_plan_inredh_base"
"l10n_ec_plan_inredh_base_511115","True","511115","Fondos de Reserva","account.data_account_type_expenses","l10n_ec_plan_inredh_base"
"l10n_ec_plan_inredh_base_511117","True","511117","Vacaciones","account.data_account_type_expenses","l10n_ec_plan_inredh_base"
"l10n_ec_plan_inredh_base_511118","True","511118","Bonificaciones Al Personal","account.data_account_type_expenses","l10n_ec_plan_inredh_base"
"l10n_ec_plan_inredh_base_511119","True","511119","Despido Intempestivo","account.data_account_type_expenses","l10n_ec_plan_inredh_base"
"l10n_ec_plan_inredh_base_511120","True","511120","Seguro T. Parcial","account.data_account_type_expenses","l10n_ec_plan_inredh_base"
"l10n_ec_plan_inredh_base_511211","True","511211","Honorarios Profesionales","account.data_account_type_expenses","l10n_ec_plan_inredh_base"
"l10n_ec_plan_inredh_base_511212","True","511212","Honorarios Intelectuales","account.data_account_type_expenses","l10n_ec_plan_inredh_base"
"l10n_ec_plan_inredh_base_511213","True","511213","Registros Notariales","account.data_account_type_expenses","l10n_ec_plan_inredh_base"
"l10n_ec_plan_inredh_base_511221","True","511221","Suministros de Oficina","account.data_account_type_direct_costs","l10n_ec_plan_inredh_base"
"l10n_ec_plan_inredh_base_511222","True","511222","Suministros de Limpieza","account.data_account_type_direct_costs","l10n_ec_plan_inredh_base"
"l10n_ec_plan_inredh_base_511223","True","511223","Suministros  de Viaje","account.data_account_type_direct_costs","l10n_ec_plan_inredh_base"
"l10n_ec_plan_inredh_base_511225","True","511225","Equipos (Celulares )","account.data_account_type_direct_costs","l10n_ec_plan_inredh_base"
"l10n_ec_plan_inredh_base_511226","True","511226","Materiles de Seguridad","account.data_account_type_direct_costs","l10n_ec_plan_inredh_base"
"l10n_ec_plan_inredh_base_511232","True","511232","Telefono","account.data_account_type_direct_costs","l10n_ec_plan_inredh_base"
"l10n_ec_plan_inredh_base_511241","True","511241","Agua","account.data_account_type_direct_costs","l10n_ec_plan_inredh_base"
"l10n_ec_plan_inredh_base_511242","True","511242","Luz","account.data_account_type_direct_costs","l10n_ec_plan_inredh_base"
"l10n_ec_plan_inredh_base_511252","True","511252","Mantenimiento y Reparacion Equipos","account.data_account_type_direct_costs","l10n_ec_plan_inredh_base"
"l10n_ec_plan_inredh_base_511253","True","511253","Mantenimiento y repaciones Oficina","account.data_account_type_direct_costs","l10n_ec_plan_inredh_base"
"l10n_ec_plan_inredh_base_511254","True","511254","Manutencion Voluntariado","account.data_account_type_direct_costs","l10n_ec_plan_inredh_base"
"l10n_ec_plan_inredh_base_511261","True","511261","Transporte","account.data_account_type_direct_costs","l10n_ec_plan_inredh_base"
"l10n_ec_plan_inredh_base_511262","True","511262","Alimentación","account.data_account_type_direct_costs","l10n_ec_plan_inredh_base"
"l10n_ec_plan_inredh_base_511263","True","511263","Hoteles","account.data_account_type_direct_costs","l10n_ec_plan_inredh_base"
"l10n_ec_plan_inredh_base_511264","True","511264","Tramites","account.data_account_type_direct_costs","l10n_ec_plan_inredh_base"
"l10n_ec_plan_inredh_base_511265","True","511265","Impuestos Salida del Pais","account.data_account_type_direct_costs","l10n_ec_plan_inredh_base"
"l10n_ec_plan_inredh_base_511266","True","511266","Imprevistos","account.data_account_type_direct_costs","l10n_ec_plan_inredh_base"
"l10n_ec_plan_inredh_base_511267","True","511267","Combustible","account.data_account_type_direct_costs","l10n_ec_plan_inredh_base"
"l10n_ec_plan_inredh_base_511268","True","511268","Viaticos","account.data_account_type_direct_costs","l10n_ec_plan_inredh_base"
"l10n_ec_plan_inredh_base_511269","True","511269","Medicinas","account.data_account_type_direct_costs","l10n_ec_plan_inredh_base"
"l10n_ec_plan_inredh_base_511271","True","511271","Servic. Impresion Materiales Publicitari","account.data_account_type_direct_costs","l10n_ec_plan_inredh_base"
"l10n_ec_plan_inredh_base_511272","True","511272","Servicio de Diseño y Grabacion","account.data_account_type_direct_costs","l10n_ec_plan_inredh_base"
"l10n_ec_plan_inredh_base_511273","True","511273","Publicidad Transmision de Cuñas Radiales","account.data_account_type_direct_costs","l10n_ec_plan_inredh_base"
"l10n_ec_plan_inredh_base_511274","True","511274","Impresion de Publicaciones","account.data_account_type_direct_costs","l10n_ec_plan_inredh_base"
"l10n_ec_plan_inredh_base_511281","True","511281","Impuestos Municpales","account.data_account_type_direct_costs","l10n_ec_plan_inredh_base"
"l10n_ec_plan_inredh_base_511282","True","511282","Impuestos Fiscales","account.data_account_type_direct_costs","l10n_ec_plan_inredh_base"
"l10n_ec_plan_inredh_base_511283","True","511283","Contribuciones y Cuotas","account.data_account_type_direct_costs","l10n_ec_plan_inredh_base"
"l10n_ec_plan_inredh_base_511291","True","511291","Servicios","account.data_account_type_direct_costs","l10n_ec_plan_inredh_base"
"l10n_ec_plan_inredh_base_511292","True","511292","Materiales de Comunicacion","account.data_account_type_direct_costs","l10n_ec_plan_inredh_base"
"l10n_ec_plan_inredh_base_511293","True","511293","Equipo de computacion","account.data_account_type_direct_costs","l10n_ec_plan_inredh_base"
"l10n_ec_plan_inredh_base_511294","True","511294","Repuestos y Accesorios","account.data_account_type_direct_costs","l10n_ec_plan_inredh_base"
"l10n_ec_plan_inredh_base_511295","True","511295","Vehiculo","account.data_account_type_direct_costs","l10n_ec_plan_inredh_base"
"l10n_ec_plan_inredh_base_511296","True","511296","Equipo de Oficina","account.data_account_type_direct_costs","l10n_ec_plan_inredh_base"
"l10n_ec_plan_inredh_base_511297","True","511297","Seguros Camioneta Oficina","account.data_account_type_direct_costs","l10n_ec_plan_inredh_base"
"l10n_ec_plan_inredh_base_511298","True","511298","Arrendamiento","account.data_account_type_direct_costs","l10n_ec_plan_inredh_base"
"l10n_ec_plan_inredh_base_511299","True","511299","SEGURO SOAT","account.data_account_type_direct_costs","l10n_ec_plan_inredh_base"
"l10n_ec_plan_inredh_base_511301","True","511301","Dep. Muebles Y Enseres","account.data_account_type_depreciation","l10n_ec_plan_inredh_base"
"l10n_ec_plan_inredh_base_511302","True","511302","Dep. Equipo de Oficina","account.data_account_type_depreciation","l10n_ec_plan_inredh_base"
"l10n_ec_plan_inredh_base_511303","True","511303","Dep. Equipo de Computacion","account.data_account_type_depreciation","l10n_ec_plan_inredh_base"
"l10n_ec_plan_inredh_base_511304","True","511304","Dep. Vehiculo","account.data_account_type_depreciation","l10n_ec_plan_inredh_base"
"l10n_ec_plan_inredh_base_511305","True","511305","Dep.Edificio","account.data_account_type_depreciation","l10n_ec_plan_inredh_base"
"l10n_ec_plan_inredh_base_511306","True","511306","Dep. Sofware","account.data_account_type_depreciation","l10n_ec_plan_inredh_base"
"l10n_ec_plan_inredh_base_511311","True","511311","Servicios Financieros","account.data_account_type_expenses","l10n_ec_plan_inredh_base"
"l10n_ec_plan_inredh_base_511312","True","511312","Intereses Financieros","account.data_account_type_expenses","l10n_ec_plan_inredh_base"
"l10n_ec_plan_inredh_base_511313","True","511313","Costos de Matriculacion Vehicular","account.data_account_type_direct_costs","l10n_ec_plan_inredh_base"
"l10n_ec_plan_inredh_base_511411","True","511411","Gasto 12% Iva en Compras","account.data_account_type_expenses","l10n_ec_plan_inredh_base"
"l10n_ec_plan_inredh_base_511412","True","511412","Gasto por decimales","account.data_account_type_expenses","l10n_ec_plan_inredh_base"
"l10n_ec_plan_inredh_base_511413","True","511413","Gasto 14% Iva en Compras","account.data_account_type_expenses","l10n_ec_plan_inredh_base"
