"id","reconcile","code","name","user_type_id/id","chart_template_id:id"
"l10n_ec_inredh_base_1_1_1_1_02","True","1.1.1.1.02","Caja Chica","account.data_account_type_current_assets","l10n_ec_inredh_base"
"l10n_ec_inredh_base_1_1_1_2_01","True","1.1.1.2.01","Sal Produbanco XXX939-5","account.data_account_type_liquidity","l10n_ec_inredh_base"
"l10n_ec_inredh_base_1_1_1_2_02","True","1.1.1.2.02","Pachamama Produbanco XXX277-3","account.data_account_type_liquidity","l10n_ec_inredh_base"
"l10n_ec_inredh_base_1_1_1_2_03","True","1.1.1.2.03","Entrepueblos Produbanco XXX229-9","account.data_account_type_liquidity","l10n_ec_inredh_base"
"l10n_ec_inredh_base_1_1_1_2_04","True","1.1.1.2.04","Fondos CONAIE Produbanco XXX299-3","account.data_account_type_liquidity","l10n_ec_inredh_base"
"l10n_ec_inredh_base_1_1_2_1_01","True","1.1.2.1.01","Cuentas Por Cobrar Clientes","account.data_account_type_receivable","l10n_ec_inredh_base"
"l10n_ec_inredh_base_1_1_2_1_02","True","1.1.2.1.02","(-) Provisión Incobrables","account.data_account_type_receivable","l10n_ec_inredh_base"
"l10n_ec_inredh_base_1_1_2_2_01","True","1.1.2.2.01","Cuentas Por Cobrar Jorge Herrera","account.data_account_type_receivable","l10n_ec_inredh_base"
"l10n_ec_inredh_base_1_1_2_2_02","True","1.1.2.2.02","Cuentas Por Cobrar Severino Sharupi","account.data_account_type_receivable","l10n_ec_inredh_base"
"l10n_ec_inredh_base_1_1_2_2_03","True","1.1.2.2.03","Cuentas Por Cobrar Sonia Topanta","account.data_account_type_receivable","l10n_ec_inredh_base"
"l10n_ec_inredh_base_1_1_2_2_04","True","1.1.2.2.04","Cuentas Por Cobrar Kathy Betancourt","account.data_account_type_receivable","l10n_ec_inredh_base"
"l10n_ec_inredh_base_1_1_2_2_05","True","1.1.2.2.05","Cuentas Por Cobrar Rumi Yumbay","account.data_account_type_receivable","l10n_ec_inredh_base"
"l10n_ec_inredh_base_1_1_2_3_01","True","1.1.2.3.01","Anticipos De Viaje - Sonia Toapanta","account.data_account_type_receivable","l10n_ec_inredh_base"
"l10n_ec_inredh_base_1_1_2_3_02","True","1.1.2.3.02","Anticipos De Viaje - Jorge Herrera","account.data_account_type_receivable","l10n_ec_inredh_base"
"l10n_ec_inredh_base_1_1_2_3_03","True","1.1.2.3.03","Anticipos De Viaje - Leonidas Iza","account.data_account_type_receivable","l10n_ec_inredh_base"
"l10n_ec_inredh_base_1_1_2_3_04","True","1.1.2.3.04","Anticipos De Viaje - Cp1 - J. Vega","account.data_account_type_receivable","l10n_ec_inredh_base"
"l10n_ec_inredh_base_1_1_2_3_05","True","1.1.2.3.05","Anticipos De Viaje - Cp2 - C. Barrera","account.data_account_type_receivable","l10n_ec_inredh_base"
"l10n_ec_inredh_base_1_1_2_3_06","True","1.1.2.3.06","Anticipos De Viaje - Cp3 - A. Valverde","account.data_account_type_receivable","l10n_ec_inredh_base"
"l10n_ec_inredh_base_1_1_2_3_07","True","1.1.2.3.07","Anticipos De Viaje - Otros","account.data_account_type_receivable","l10n_ec_inredh_base"
"l10n_ec_inredh_base_1_1_2_5_01","True","1.1.2.5.01","IVA Pagado","account.data_account_type_non_current_assets","l10n_ec_inredh_base"
"l10n_ec_inredh_base_1_1_2_5_02","True","1.1.2.5.02","IR Pagado","account.data_account_type_non_current_assets","l10n_ec_inredh_base"
"l10n_ec_inredh_base_1_1_3_1_01","True","1.1.3.1.01","Inv. Suministros Y Materiales ","account.data_account_type_current_assets","l10n_ec_inredh_base"
"l10n_ec_inredh_base_1_2_1_1_01","True","1.2.1.1.01","EDIFICIOS","account.data_account_type_fixed_assets","l10n_ec_inredh_base"
"l10n_ec_inredh_base_1_2_1_1_02","True","1.2.1.1.02","(-) Depre. Acumulada Edificios","account.data_account_type_fixed_assets","l10n_ec_inredh_base"
"l10n_ec_inredh_base_1_2_1_2_01","True","1.2.1.2.01","MUEBLES Y ENSERES ","account.data_account_type_fixed_assets","l10n_ec_inredh_base"
"l10n_ec_inredh_base_1_2_1_2_02","True","1.2.1.2.02","(-) Depre. Acumulada Muebles Y Enseres","account.data_account_type_fixed_assets","l10n_ec_inredh_base"
"l10n_ec_inredh_base_1_2_1_2_03","True","1.2.1.2.03","EQUIPO DE OFICINA","account.data_account_type_fixed_assets","l10n_ec_inredh_base"
"l10n_ec_inredh_base_1_2_1_2_04","True","1.2.1.2.04","(-) Depre. Acumulada Equipo De Oficina","account.data_account_type_fixed_assets","l10n_ec_inredh_base"
"l10n_ec_inredh_base_1_2_1_2_05","True","1.2.1.2.05","EQUIPO DE COMPUTACIÓN","account.data_account_type_fixed_assets","l10n_ec_inredh_base"
"l10n_ec_inredh_base_1_2_1_2_06","True","1.2.1.2.06","(-) Depre. Acumulada Equipo De Computación","account.data_account_type_fixed_assets","l10n_ec_inredh_base"
"l10n_ec_inredh_base_1_2_1_2_07","True","1.2.1.2.07","VEHÍCULOS","account.data_account_type_fixed_assets","l10n_ec_inredh_base"
"l10n_ec_inredh_base_1_2_1_2_08","True","1.2.1.2.08","(-) Depre. Acumulada Vehículos","account.data_account_type_fixed_assets","l10n_ec_inredh_base"
"l10n_ec_inredh_base_1_2_1_3_01","True","1.2.1.3.01","SOFTWARE","account.data_account_type_fixed_assets","l10n_ec_inredh_base"
"l10n_ec_inredh_base_1_2_1_3_02","True","1.2.1.3.02","(-) Amortización Software","account.data_account_type_fixed_assets","l10n_ec_inredh_base"
"l10n_ec_inredh_base_2_1_1_2_01","True","2.1.1.2.01","Visa Por Pagar","account.data_account_type_payable","l10n_ec_inredh_base"
"l10n_ec_inredh_base_2_1_2_01","True","2.1.2.01","Cuentas Por Pagar Proveedores","account.data_account_type_payable","l10n_ec_inredh_base"
"l10n_ec_inredh_base_2_1_3_1_01","True","2.1.3.1.01","Impuesto Retenido Del 30%","account.data_account_type_current_liabilities","l10n_ec_inredh_base"
"l10n_ec_inredh_base_2_1_3_1_02","True","2.1.3.1.02","Impuesto Retenido Del 70%","account.data_account_type_current_liabilities","l10n_ec_inredh_base"
"l10n_ec_inredh_base_2_1_3_1_03","True","2.1.3.1.03","Impuesto Retenido Del 100%","account.data_account_type_current_liabilities","l10n_ec_inredh_base"
"l10n_ec_inredh_base_2_1_3_2_01","True","2.1.3.2.01","Impuesto Retenido del 0.1%","account.data_account_type_current_liabilities","l10n_ec_inredh_base"
"l10n_ec_inredh_base_2_1_3_2_02","True","2.1.3.2.02","Impuesto Retenido del 1%","account.data_account_type_current_liabilities","l10n_ec_inredh_base"
"l10n_ec_inredh_base_2_1_3_2_03","True","2.1.3.2.03","Impuesto Retenido del 2%","account.data_account_type_current_liabilities","l10n_ec_inredh_base"
"l10n_ec_inredh_base_2_1_3_2_04","True","2.1.3.2.04","Impuesto Retenido del 8%","account.data_account_type_current_liabilities","l10n_ec_inredh_base"
"l10n_ec_inredh_base_2_1_3_2_05","True","2.1.3.2.05","Impuesto Retenido del 10%","account.data_account_type_current_liabilities","l10n_ec_inredh_base"
"l10n_ec_inredh_base_2_1_3_2_06","True","2.1.3.2.06","Renta Retenida Relación De Dependencia","account.data_account_type_current_liabilities","l10n_ec_inredh_base"
"l10n_ec_inredh_base_2_1_4_01","True","2.1.4.01","Aporte Personal Iess Por Pagar","account.data_account_type_current_liabilities","l10n_ec_inredh_base"
"l10n_ec_inredh_base_2_1_4_02","True","2.1.4.02","Aporte Patronal Iess Por Pagar","account.data_account_type_current_liabilities","l10n_ec_inredh_base"
"l10n_ec_inredh_base_2_1_4_03","True","2.1.4.03","Préstamos Iess Por Pagar","account.data_account_type_current_liabilities","l10n_ec_inredh_base"
"l10n_ec_inredh_base_2_1_5_1_01","True","2.1.5.1.01","Décimo Tercer Sueldo","account.data_account_type_current_liabilities","l10n_ec_inredh_base"
"l10n_ec_inredh_base_2_1_5_1_02","True","2.1.5.1.02","Décimo Cuarto Sueldo","account.data_account_type_current_liabilities","l10n_ec_inredh_base"
"l10n_ec_inredh_base_2_1_5_1_03","True","2.1.5.1.03","Fondo Reserva ","account.data_account_type_current_liabilities","l10n_ec_inredh_base"
"l10n_ec_inredh_base_2_1_5_1_04","True","2.1.5.1.04","Vacaciones","account.data_account_type_current_liabilities","l10n_ec_inredh_base"
"l10n_ec_inredh_base_2_1_5_1_05","True","2.1.5.1.05","Bonificaciones al Personal","account.data_account_type_current_liabilities","l10n_ec_inredh_base"
"l10n_ec_inredh_base_2_1_5_2_01","True","2.1.5.2.01","Sueldos Por Pagar","account.data_account_type_current_liabilities","l10n_ec_inredh_base"
"l10n_ec_inredh_base_2_1_6_1_01","True","2.1.6.1.01","Fondo por Ejecutar Proyecto 1","account.data_account_type_current_liabilities","l10n_ec_inredh_base"
"l10n_ec_inredh_base_2_1_6_1_02","True","2.1.6.1.02","Fondo por Ejecutar Proyecto 2","account.data_account_type_current_liabilities","l10n_ec_inredh_base"
"l10n_ec_inredh_base_2_1_6_1_03","True","2.1.6.1.03","Fondo por Ejecutar Proyecto 3","account.data_account_type_current_liabilities","l10n_ec_inredh_base"
"l10n_ec_inredh_base_2_1_7_1_01","True","2.1.7.1.01","Contribuciones Por Ejecutar Proyecto 1","account.data_account_type_current_liabilities","l10n_ec_inredh_base"
"l10n_ec_inredh_base_2_1_7_1_02","True","2.1.7.1.02","Contribuciones Por Ejecutar Proyecto 2","account.data_account_type_current_liabilities","l10n_ec_inredh_base"
"l10n_ec_inredh_base_2_1_7_1_03","True","2.1.7.1.03","Contribuciones Por Ejecutar Proyecto 3","account.data_account_type_current_liabilities","l10n_ec_inredh_base"
"l10n_ec_inredh_base_2_1_8_1_01","True","2.1.8.1.01","IVA Cobrado","account.data_account_type_current_liabilities","l10n_ec_inredh_base"
"l10n_ec_inredh_base_3_1_1_1_01","True","3.1.1.1.01","Capital Suscrito","account.data_account_type_equity","l10n_ec_inredh_base"
"l10n_ec_inredh_base_3_1_2_1_01","True","3.1.2.1.01","Revalorización De Activos Fijos","account.data_account_type_equity","l10n_ec_inredh_base"
"l10n_ec_inredh_base_3_1_2_1_02","True","3.1.2.1.02","Donación De Activos","account.data_account_type_equity","l10n_ec_inredh_base"
"l10n_ec_inredh_base_3_1_2_1_03","True","3.1.2.1.03","Donación De Capital","account.data_account_type_equity","l10n_ec_inredh_base"
"l10n_ec_inredh_base_3_1_2_1_04","True","3.1.2.1.04","Fondo General De Trabajo Años Anteriores ","account.data_account_type_equity","l10n_ec_inredh_base"
"l10n_ec_inredh_base_3_1_2_1_05","True","3.1.2.1.05","Déficit Años Anteriores","account.data_account_type_equity","l10n_ec_inredh_base"
"l10n_ec_inredh_base_3_1_2_1_06","True","3.1.2.1.06","Superávit Años Anteriores","account.data_account_type_equity","l10n_ec_inredh_base"
"l10n_ec_inredh_base_3_1_2_1_07","True","3.1.2.1.07","Déficit De  Años Anteriores                                                 ","account.data_account_type_equity","l10n_ec_inredh_base"
"l10n_ec_inredh_base_3_1_2_1_08","True","3.1.2.1.08","Resultados Acumulados Pendientes De Ejecutar","account.data_account_type_equity","l10n_ec_inredh_base"
"l10n_ec_inredh_base_3_1_2_1_09","True","3.1.2.1.09","Resultado Del Periodo Pendiente De Ejecutar","account.data_account_type_equity","l10n_ec_inredh_base"
"l10n_ec_inredh_base_3_1_3_1_01","True","3.1.3.1.01","Fondo General De Trabajo Del Periodo","account.data_account_type_equity","l10n_ec_inredh_base"
"l10n_ec_inredh_base_3_1_3_2_01","True","3.1.3.2.01","Fondo  General De Trabajo Del Periodo","account.data_account_type_equity","l10n_ec_inredh_base"
"l10n_ec_inredh_base_4_1_1_1","True","4.1.1.1","Ingreso Proyecto 1","account.data_account_type_revenue","l10n_ec_inredh_base"
"l10n_ec_inredh_base_4_1_1_2","True","4.1.1.2","Ingreso Proyecto 2","account.data_account_type_revenue","l10n_ec_inredh_base"
"l10n_ec_inredh_base_4_1_1_3","True","4.1.1.3","Ingreso Proyecto 3","account.data_account_type_revenue","l10n_ec_inredh_base"
"l10n_ec_inredh_base_4_1_2_1_01","True","4.1.2.1.01","Contribuciones Socios Para Proyecto 1","account.data_account_type_revenue","l10n_ec_inredh_base"
"l10n_ec_inredh_base_4_1_2_1_02","True","4.1.2.1.02","Contribuciones Socios Para Proyecto 2","account.data_account_type_revenue","l10n_ec_inredh_base"
"l10n_ec_inredh_base_4_1_2_1_03","True","4.1.2.1.03","Contribuciones Socios Para Proyecto 3","account.data_account_type_revenue","l10n_ec_inredh_base"
"l10n_ec_inredh_base_4_2_1_1_01","True","4.2.1.1.01","Servicios De Capacitación","account.data_account_type_revenue","l10n_ec_inredh_base"
"l10n_ec_inredh_base_4_2_1_2_01","True","4.2.1.2.01","Publicaciones","account.data_account_type_revenue","l10n_ec_inredh_base"
"l10n_ec_inredh_base_4_2_2_01","True","4.2.2.01","Intereses Ganados ","account.data_account_type_other_income","l10n_ec_inredh_base"
"l10n_ec_inredh_base_5_1_1_01","True","5.1.1.01","Sueldos y Salarios","account.data_account_type_other_income","l10n_ec_inredh_base"
"l10n_ec_inredh_base_5_1_1_02","True","5.1.1.02","Gratificaciones","account.data_account_type_other_income","l10n_ec_inredh_base"
"l10n_ec_inredh_base_5_1_1_03","True","5.1.1.03","Décimo Tercero","account.data_account_type_other_income","l10n_ec_inredh_base"
"l10n_ec_inredh_base_5_1_1_04","True","5.1.1.04","Décimo Cuarto","account.data_account_type_other_income","l10n_ec_inredh_base"
"l10n_ec_inredh_base_5_1_1_05","True","5.1.1.05","Fondos De Reserva","account.data_account_type_other_income","l10n_ec_inredh_base"
"l10n_ec_inredh_base_5_1_1_06","True","5.1.1.06","Aporte Patronal  ","account.data_account_type_other_income","l10n_ec_inredh_base"
"l10n_ec_inredh_base_5_1_1_07","True","5.1.1.07","Vacaciones","account.data_account_type_other_income","l10n_ec_inredh_base"
"l10n_ec_inredh_base_5_1_1_08","True","5.1.1.08","Bonificación Al Personal","account.data_account_type_other_income","l10n_ec_inredh_base"
"l10n_ec_inredh_base_5_2_1_01","True","5.2.1.01","Honorarios Profesionales ","account.data_account_type_expenses","l10n_ec_inredh_base"
"l10n_ec_inredh_base_5_2_1_02","True","5.2.1.02","Honorarios Legales","account.data_account_type_expenses","l10n_ec_inredh_base"
"l10n_ec_inredh_base_5_2_1_03","True","5.2.1.03","Consultorías y Trabajos Especializados","account.data_account_type_expenses","l10n_ec_inredh_base"
"l10n_ec_inredh_base_5_2_2_01","True","5.2.2.01","Seguro Vehículos","account.data_account_type_expenses","l10n_ec_inredh_base"
"l10n_ec_inredh_base_5_2_2_02","True","5.2.2.02","Mantenimiento Vehículos","account.data_account_type_expenses","l10n_ec_inredh_base"
"l10n_ec_inredh_base_5_2_2_03","True","5.2.2.03","Matriculación Vehículos","account.data_account_type_expenses","l10n_ec_inredh_base"
"l10n_ec_inredh_base_5_2_2_04","True","5.2.2.04","Reparación Vehículos","account.data_account_type_expenses","l10n_ec_inredh_base"
"l10n_ec_inredh_base_5_2_3_01","True","5.2.3.01","Teléfono","account.data_account_type_expenses","l10n_ec_inredh_base"
"l10n_ec_inredh_base_5_2_3_02","True","5.2.3.02","Internet","account.data_account_type_expenses","l10n_ec_inredh_base"
"l10n_ec_inredh_base_5_2_4_01","True","5.2.4.01","Luz Eléctrica","account.data_account_type_expenses","l10n_ec_inredh_base"
"l10n_ec_inredh_base_5_2_4_02","True","5.2.4.02","Agua Potable","account.data_account_type_expenses","l10n_ec_inredh_base"
"l10n_ec_inredh_base_5_2_5_01","True","5.2.5.01","Arriendo  ","account.data_account_type_expenses","l10n_ec_inredh_base"
"l10n_ec_inredh_base_5_2_6_01","True","5.2.6.01","Combustible","account.data_account_type_expenses","l10n_ec_inredh_base"
"l10n_ec_inredh_base_5_2_6_02","True","5.2.6.02","Lubricantes","account.data_account_type_expenses","l10n_ec_inredh_base"
"l10n_ec_inredh_base_5_2_7_01","True","5.2.7.01","Suministros De Oficina","account.data_account_type_direct_costs","l10n_ec_inredh_base"
"l10n_ec_inredh_base_5_2_7_02","True","5.2.7.02","Suministros De Limpieza","account.data_account_type_direct_costs","l10n_ec_inredh_base"
"l10n_ec_inredh_base_5_2_7_03","True","5.2.7.03","Suministros  De Viaje","account.data_account_type_direct_costs","l10n_ec_inredh_base"
"l10n_ec_inredh_base_5_2_7_04","True","5.2.7.04","Alimentos Talleres Comunidades","account.data_account_type_direct_costs","l10n_ec_inredh_base"
"l10n_ec_inredh_base_5_2_7_05","True","5.2.7.05","Equipos (celulares )","account.data_account_type_direct_costs","l10n_ec_inredh_base"
"l10n_ec_inredh_base_5_2_8_01","True","5.2.8.01","Transporte","account.data_account_type_expenses","l10n_ec_inredh_base"
"l10n_ec_inredh_base_5_2_8_02","True","5.2.8.02","Alimentación","account.data_account_type_expenses","l10n_ec_inredh_base"
"l10n_ec_inredh_base_5_2_8_03","True","5.2.8.03","Hoteles","account.data_account_type_expenses","l10n_ec_inredh_base"
"l10n_ec_inredh_base_5_2_8_04","True","5.2.8.04","Tramites","account.data_account_type_expenses","l10n_ec_inredh_base"
"l10n_ec_inredh_base_5_2_8_05","True","5.2.8.05","Impuestos Salida Del País","account.data_account_type_expenses","l10n_ec_inredh_base"
"l10n_ec_inredh_base_5_2_8_06","True","5.2.8.06","Imprevistos","account.data_account_type_expenses","l10n_ec_inredh_base"
"l10n_ec_inredh_base_5_2_8_07","True","5.2.8.07","Combustible","account.data_account_type_expenses","l10n_ec_inredh_base"
"l10n_ec_inredh_base_5_2_9_01","True","5.2.9.01","Servic. Impresión Materiales De Comunic.","account.data_account_type_expenses","l10n_ec_inredh_base"
"l10n_ec_inredh_base_5_2_9_02","True","5.2.9.02","Servicio De Diseño Y Grabación","account.data_account_type_expenses","l10n_ec_inredh_base"
"l10n_ec_inredh_base_5_2_9_03","True","5.2.9.03","Publicidad Transmisión De Cuñas Radiales","account.data_account_type_expenses","l10n_ec_inredh_base"
"l10n_ec_inredh_base_5_2_10_01","True","5.2.10.01","Impuestos Municipales","account.data_account_type_expenses","l10n_ec_inredh_base"
"l10n_ec_inredh_base_5_2_10_02","True","5.2.10.02","Impuestos Fiscales","account.data_account_type_expenses","l10n_ec_inredh_base"
"l10n_ec_inredh_base_5_2_10_03","True","5.2.10.03","Imp. Especial A La De Salida De Divisas","account.data_account_type_expenses","l10n_ec_inredh_base"
"l10n_ec_inredh_base_5_2_10_04","True","5.2.10.04","Imp. Prediales","account.data_account_type_expenses","l10n_ec_inredh_base"
"l10n_ec_inredh_base_5_2_10_05","True","5.2.10.05","Contribuciones y Cuotas","account.data_account_type_expenses","l10n_ec_inredh_base"
"l10n_ec_inredh_base_5_2_11_01","True","5.2.11.01","Depreciación Muebles Enseres","account.data_account_type_depreciation","l10n_ec_inredh_base"
"l10n_ec_inredh_base_5_2_11_02","True","5.2.11.02","Depreciación Equipo Oficina","account.data_account_type_depreciation","l10n_ec_inredh_base"
"l10n_ec_inredh_base_5_2_11_03","True","5.2.11.03","Depreciación Equipo Computación","account.data_account_type_depreciation","l10n_ec_inredh_base"
"l10n_ec_inredh_base_5_2_11_04","True","5.2.11.04","Depreciación Vehículos","account.data_account_type_depreciation","l10n_ec_inredh_base"
"l10n_ec_inredh_base_5_2_11_05","True","5.2.11.05","Amortización Software","account.data_account_type_depreciation","l10n_ec_inredh_base"
"l10n_ec_inredh_base_5_2_12_01","True","5.2.12.01","Mantenimiento Web","account.data_account_type_depreciation","l10n_ec_inredh_base"
"l10n_ec_inredh_base_5_2_12_02","True","5.2.12.02","Mantenimiento Equipos Oficina  Y Computación","account.data_account_type_depreciation","l10n_ec_inredh_base"
"l10n_ec_inredh_base_5_2_13_01","True","5.2.13.01","Servicios Financieros","account.data_account_type_depreciation","l10n_ec_inredh_base"
